01 - Introduction – basicBayes
…
Stimuli presented aurally.

521 subjects.

Subset of MALD

30 subjects, 100 observations each.

MALD: the data

mald <- readRDS("data/tucker2019/mald_1_1.rds")

mald

# A tibble: 5,000 × 7
   Subject Item        IsWord PhonLev    RT ACC     RT_log
   <chr>   <chr>       <fct>    <dbl> <int> <fct>    <dbl>
 1 15308   acreage     TRUE      6.01   617 correct   6.42
 2 15308   maxraezaxr  FALSE     6.78  1198 correct   7.09
 3 15308   prognosis   TRUE      8.14   954 correct   6.86
 4 15308   giggles     TRUE      6.22   579 correct   6.36
 5 15308   baazh       FALSE     6.13  1011 correct   6.92
 6 15308   unflagging  TRUE      7.66  1402 correct   7.25
 7 15308   ihnpaykaxrz FALSE     7.47  1059 correct   6.97
 8 15308   hawk        TRUE      6.09   739 correct   6.61
 9 15308   assessing   TRUE      6.37   789 correct   6.67
10 15308   mehlaxl     FALSE     5.80   926 correct   6.83
# ℹ 4,990 more rows
…
