basicBayes – 04 - Bernoulli models for binary outcomes
…
Figure 2: Predicted accuracy based on phonetic distance.

Brentari 2024: Lengua de Señas Nicaragüense (LSN)

brentari2024 <- read_csv("data/brentari2024/verb_org.csv")

brentari2024

# A tibble: 630 × 6
   Group    Participant Object   Number Agency   Num_Predicates
   <chr>          <dbl> <chr>    <chr>  <chr>    <chr>         
 1 homesign           1 book     single agent    multiple      
 2 homesign           1 book     single agent    multiple      
 3 homesign           1 book     plural no_agent multiple      
 4 homesign           1 coin     single agent    single        
 5 homesign           1 coin     plural no_agent single        
 6 homesign           1 coin     single no_agent single        
 7 homesign           1 coin     single no_agent multiple      
 8 homesign           1 lollipop single agent    single        
 9 homesign           1 lollipop single agent    single        
10 homesign           1 lollipop plural no_agent single        
# ℹ 620 more rows
…
