basicBayes – 04 - Poisson and ordinal regression models for count variables and likert scales
…
Likert scales: Ordinal models.

Counts of infants’ gestures

gestures <- read_csv("data/cameron2020/gestures.csv")
gestures_count <- gestures |>
  filter(months == 11) |> 
  summarise(
    count = sum(count, na.rm = TRUE),
    .by = c(background, dyad)
  )

gestures_count

# A tibble: 60 × 3
   background dyad  count
   <chr>      <chr> <dbl>
 1 Bengali    b01       9
 2 Bengali    b02      18
 3 Bengali    b03      15
 4 Bengali    b04      21
 5 Bengali    b05      13
 6 Bengali    b06       6
 7 Bengali    b07       6
 8 Bengali    b08      19
 9 Bengali    b09       6
10 Bengali    b10       1
# ℹ 50 more rows
…
Predicted counts

gest_negb_draws <- gest_negb_draws |> 
  mutate(
    Bengali = exp(b_backgroundBengali),
    Chinese = exp(b_backgroundChinese),
    English = exp(b_backgroundEnglish)
  )

gest_negb_draws |> select(Bengali:English)

# A tibble: 4,000 × 3
   Bengali Chinese English
     <dbl>   <dbl>   <dbl>
 1    13.0    9.86    9.83
 2    14.4   11.8    10.5 
 3    14.0    9.74   12.5 
 4    13.9   13.7     7.16
 5    17.1    8.31    9.35
 6    12.2    9.90   16.3 
 7    11.5   10.3    14.3 
 8    12.4   15.1     8.72
 9    14.7    8.29   15.0 
10    15.1   16.8    11.9 
# ℹ 3,990 more rows
…
If the data has over-dispersion, the negative binomial distribution might be better.

The model estimates are in logged counts. Use exp() to convert them back to counts.

Likert scales

emilianto <- readRDS("data/hampton2023/emilianto_attitude.rds")

emilian <- emilianto |> 
  filter(language == "Emilian")

emilian |> select(comprehend, speak, commuter, age)

# A tibble: 434 × 4
   comprehend speak commuter   age
   <ord>      <ord> <chr>    <dbl>
 1 VG         VG    Sí          57
 2 G          50/50 No          20
 3 VG         VG    No          50
 4 50/50      NO    No          25
 5 VG         VG    No          65
 6 VG         VG    No          56
 7 VG         VG    No          62
 8 VG         VG    No          65
 9 VG         VG    No          63
10 VG         G     No          61
# ℹ 424 more rows
…
