basicBayes - Tutorial 01: BRM basics
…
Get started

The tutorials are designed to be self-paced hands-ons to give you the chance to practice running Bayesian linear models in a semi-guided way.

To start, double click on the basicBayesKit.Rproj file to open the RStudio project with all the necessary files.

In the project folder, you will find the data in the data/ folder and a script called code.R where you will be writing your R code.

I have pre-filled the script with some necessary code to attach a few packages and read the data.

The polite data

The polite data contains several acoustic measures of the speech of Korean students living in Germany who where asked to speak using a formal (pol) or informal (inf) register (see column attitude).

# A tibble: 212 × 27
   subject gender birthplace musicstudent months_ger scenario task  attitude
   <chr>   <chr>  <chr>      <chr>             <dbl>    <dbl> <chr> <chr>   
 1 F1      F      seoul_area yes                  18        6 not   inf     
 2 F1      F      seoul_area yes                  18        6 not   pol     
 3 F1      F      seoul_area yes                  18        7 not   inf     
 4 F1      F      seoul_area yes                  18        7 not   pol     
 5 F1      F      seoul_area yes                  18        1 dct   pol     
 6 F1      F      seoul_area yes                  18        1 dct   inf     
 7 F1      F      seoul_area yes                  18        2 dct   pol     
 8 F1      F      seoul_area yes                  18        2 dct   inf     
 9 F1      F      seoul_area yes                  18        3 dct   pol     
10 F1      F      seoul_area yes                  18        3 dct   inf     
# ℹ 202 more rows
# ℹ 19 more variables: total_duration <dbl>, articulation_rate <dbl>,
#   f0mn <dbl>, f0sd <dbl>, f0range <dbl>, inmn <dbl>, insd <dbl>,
#   inrange <dbl>, shimmer <dbl>, jitter <dbl>, HNRmn <dbl>, H1H2 <dbl>,
#   breath_count <dbl>, filler_count <dbl>, hiss_count <dbl>,
#   nasal_count <dbl>, sil_count <dbl>, ya_count <dbl>, yey_count <dbl>
…
